2024 ICES - Short Course
…
fpp3: Forecasting Principles and Practice, the third edition

tidyverse: A collection of packages for data manipulation and visualization in R

tsbox: Provides a set of tools for handling time series in R

More comprehensive list here

https://cran.r-project.org/web/views/TimeSeries.html

First look at some data

gafa_stock 

# A tsibble: 5,032 x 8 [!]
# Key:       Symbol [4]
   Symbol Date        Open  High   Low Close Adj_Close    Volume
   <chr>  <date>     <dbl> <dbl> <dbl> <dbl>     <dbl>     <dbl>
 1 AAPL   2014-01-02  79.4  79.6  78.9  79.0      67.0  58671200
 2 AAPL   2014-01-03  79.0  79.1  77.2  77.3      65.5  98116900
 3 AAPL   2014-01-06  76.8  78.1  76.2  77.7      65.9 103152700
 4 AAPL   2014-01-07  77.8  78.0  76.8  77.1      65.4  79302300
 5 AAPL   2014-01-08  77.0  77.9  77.0  77.6      65.8  64632400
 6 AAPL   2014-01-09  78.1  78.1  76.5  76.6      65.0  69787200
 7 AAPL   2014-01-10  77.1  77.3  75.9  76.1      64.5  76244000
 8 AAPL   2014-01-13  75.7  77.5  75.7  76.5      64.9  94623200
 9 AAPL   2014-01-14  76.9  78.1  76.8  78.1      66.1  83140400
10 AAPL   2014-01-15  79.1  80.0  78.8  79.6      67.5  97909700
# ℹ 5,022 more rows
…
zoo or tsibble time series

Another option for irregularly spaced or high frequency

They allow date object to be bound to observation

ts_tsibble(AirPassengers)

# A tsibble: 144 x 2 [1D]
   time       value
   <date>     <dbl>
 1 1949-01-01   112
 2 1949-02-01   118
 3 1949-03-01   132
 4 1949-04-01   129
 5 1949-05-01   121
 6 1949-06-01   135
 7 1949-07-01   148
 8 1949-08-01   148
 9 1949-09-01   136
10 1949-10-01   119
# ℹ 134 more rows
…
